<svg xmlns="http://www.w3.org/2000/svg" viewBox="0 0 256 256">
  <rect width="256" height="256" fill="none"/>
  <g fill="none"
     stroke="currentColor"
     stroke-miterlimit="10"
     stroke-width="16"
     stroke-linecap="round"
     stroke-linejoin="round">
    <circle cx="128" cy="128" r="96" stroke-dasharray="20,32"/>
  </g>
</svg>
